For 10 Peers
1 => 32 - 1513
2 => 44 - 1554
3 => 21 - 1192
4 => 38 - 1146
5 => 40 - 1202
6 => 38 - 1517
7 => 28 - 1365
8 => 26 - 1506
9 => 156 - 1796
10 => 52 - 1090
================
Avg. 47.5 - 1388.1
================
Sorted Values
21, 26, 28, 32, 38, 38, 40, 44, 52, 156
1090, 1146, 1192, 1202, 1365, 1506, 1513, 1517, 1554, 1796
===============